<svg width="126" height="40" viewBox="0 0 126 40" fill="none" xmlns="http://www.w3.org/2000/svg">
<path d="M9.78647 14.2943C8.77251 13.7308 7.62643 13.4431 6.46432 13.4605C5.32297 13.4468 4.19804 13.731 3.20221 14.2844C2.24804 14.8154 1.45101 15.5856 0.890714 16.5178C0.31743 17.495 0.0105035 18.6034 0.000137624 19.734V29.8788C-0.00225852 30.0318 0.0266566 30.1837 0.0851342 30.3253C0.143612 30.4669 0.230437 30.5953 0.340358 30.7027C0.448943 30.8112 0.578417 30.8971 0.72109 30.955C0.863764 31.013 1.01673 31.042 1.1709 31.0402C1.32586 31.0412 1.47943 31.011 1.62222 30.9513C1.76502 30.8915 1.89405 30.8036 2.00143 30.6927C2.21183 30.4737 2.32685 30.1813 2.32164 29.8788V24.7667C2.6632 25.0676 3.03938 25.3275 3.44237 25.5409C4.36754 26.0231 5.39932 26.2687 6.44431 26.2556C7.60642 26.273 8.7525 25.9853 9.76646 25.4218C10.7331 24.8772 11.5348 24.0854 12.088 23.1288C12.6442 22.1287 12.936 21.0052 12.936 19.863C12.936 18.7208 12.6442 17.5973 12.088 16.5972C11.5417 15.6396 10.7471 14.8444 9.78647 14.2943ZM10.0667 21.9873C9.71067 22.6203 9.18676 23.1447 8.55174 23.5034C7.91672 23.8621 7.19482 24.0415 6.46432 24.0222C5.72388 24.0316 4.99455 23.843 4.35296 23.4762C3.73402 23.1201 3.22262 22.606 2.872 21.9873C2.51982 21.3301 2.33565 20.5973 2.33565 19.8531C2.33565 19.1089 2.51982 18.376 2.872 17.7189C3.22262 17.1002 3.73402 16.586 4.35296 16.2299C4.99436 15.8627 5.72382 15.6741 6.46432 15.684C7.19482 15.6646 7.91672 15.8441 8.55174 16.2028C9.18676 16.5615 9.71067 17.0858 10.0667 17.7189C10.4365 18.3697 10.6264 19.106 10.617 19.8531C10.6318 20.5995 10.4453 21.3363 10.0767 21.9873H10.0667Z" fill="#BCFFEF"/>
<path d="M22.0142 13.6883C21.5472 13.5171 21.0506 13.4395 20.5532 13.46C19.6897 13.4522 18.841 13.6825 18.1016 14.1251C17.8577 14.2707 17.6267 14.4368 17.4112 14.6214C17.3952 14.3526 17.2815 14.0986 17.091 13.9067C16.9796 13.8005 16.8477 13.7176 16.7033 13.663C16.5589 13.6085 16.4049 13.5833 16.2504 13.5891C15.9471 13.5823 15.6529 13.6926 15.4299 13.8968C15.3147 14.0048 15.2239 14.1359 15.1635 14.2814C15.1031 14.4268 15.0746 14.5833 15.0797 14.7405V24.9647C15.0773 25.1178 15.1062 25.2697 15.1647 25.4113C15.2232 25.5529 15.31 25.6813 15.4199 25.7886C15.5285 25.8972 15.658 25.983 15.8006 26.041C15.9433 26.099 16.0963 26.1279 16.2504 26.1261C16.4082 26.1352 16.5662 26.1117 16.7144 26.057C16.8625 26.0023 16.9976 25.9177 17.111 25.8085C17.3214 25.5894 17.4364 25.297 17.4312 24.9945V18.582C17.4194 18.0625 17.5546 17.5501 17.8215 17.103C18.0872 16.6798 18.4643 16.3366 18.9122 16.1104C19.4193 15.8517 19.9832 15.7221 20.5532 15.7332C20.7697 15.7162 20.9872 15.7162 21.2036 15.7332C21.3269 15.7431 21.4507 15.7431 21.5739 15.7332C21.7156 15.7348 21.8568 15.7181 21.9942 15.6835C22.1715 15.6347 22.3305 15.5353 22.4514 15.3976C22.5724 15.26 22.65 15.0902 22.6746 14.9093C22.7322 14.6609 22.697 14.4003 22.5756 14.1757C22.4541 13.9512 22.2546 13.778 22.0142 13.6883Z" fill="#BCFFEF"/>
<path d="M32.7213 14.2941C31.7048 13.7459 30.5661 13.4587 29.4091 13.4587C28.2521 13.4587 27.1135 13.7459 26.097 14.2941C25.13 14.8383 24.3282 15.6303 23.7755 16.5871C23.2192 17.5872 22.9275 18.7107 22.9275 19.8529C22.9275 20.9951 23.2192 22.1187 23.7755 23.1187C24.3286 24.0753 25.1303 24.8672 26.097 25.4117C27.1135 25.9599 28.2521 26.2471 29.4091 26.2471C30.5661 26.2471 31.7048 25.9599 32.7213 25.4117C33.68 24.8636 34.4743 24.0721 35.0228 23.1187C35.579 22.1187 35.8708 20.9951 35.8708 19.8529C35.8708 18.7107 35.579 17.5872 35.0228 16.5871C34.4743 15.6337 33.68 14.8423 32.7213 14.2941ZM33.0215 21.9871C32.6736 22.6045 32.1658 23.1186 31.5505 23.4761C31.0765 23.7526 30.5521 23.9335 30.0074 24.0083C29.4627 24.0832 28.9085 24.0505 28.3766 23.9121C27.8447 23.7737 27.3456 23.5324 26.908 23.2021C26.4704 22.8717 26.103 22.4588 25.8268 21.9871C25.4477 21.3391 25.2508 20.6021 25.2564 19.8529C25.2448 19.1024 25.4348 18.3624 25.8068 17.7088C26.1602 17.0888 26.6752 16.5745 27.2978 16.2199C27.9447 15.8617 28.6733 15.6737 29.4141 15.6737C30.155 15.6737 30.8836 15.8617 31.5305 16.2199C32.1544 16.5773 32.6695 17.0951 33.0215 17.7188C33.3809 18.3725 33.5603 19.1085 33.5418 19.8529C33.558 20.5971 33.3787 21.3326 33.0215 21.9871Z" fill="#BCFFEF"/>
<path d="M47.1705 14.2941C46.154 13.7459 45.0154 13.4587 43.8584 13.4587C42.7013 13.4587 41.5627 13.7459 40.5462 14.2941C39.5792 14.8383 38.7775 15.6303 38.2247 16.5871C37.6685 17.5872 37.3767 18.7107 37.3767 19.8529C37.3767 20.9951 37.6685 22.1187 38.2247 23.1187C38.7779 24.0753 39.5795 24.8672 40.5462 25.4117C41.5627 25.9599 42.7013 26.2471 43.8584 26.2471C45.0154 26.2471 46.154 25.9599 47.1705 25.4117C48.1329 24.865 48.9308 24.0734 49.482 23.1187C50.0382 22.1187 50.33 20.9951 50.33 19.8529C50.33 18.7107 50.0382 17.5872 49.482 16.5871C48.9308 15.6324 48.1329 14.8409 47.1705 14.2941ZM47.4507 21.9871C47.1028 22.6045 46.595 23.1186 45.9797 23.4761C45.5057 23.7526 44.9813 23.9335 44.4366 24.0083C43.8919 24.0832 43.3377 24.0505 42.8058 23.9121C42.2739 23.7737 41.7748 23.5324 41.3372 23.2021C40.8996 22.8717 40.5322 22.4588 40.256 21.9871C39.8839 21.3372 39.6939 20.6003 39.7057 19.8529C39.694 19.1024 39.884 18.3624 40.256 17.7088C40.6094 17.0888 41.1244 16.5745 41.747 16.2199C42.3939 15.8617 43.1225 15.6737 43.8634 15.6737C44.6042 15.6737 45.3328 15.8617 45.9797 16.2199C46.595 16.5774 47.1028 17.0914 47.4507 17.7088C47.8327 18.3597 48.0331 19.0998 48.0311 19.8529C48.0289 20.6024 47.8288 21.3383 47.4507 21.9871Z" fill="#BCFFEF"/>
<path d="M53.7452 25.8087C53.8538 25.9172 53.9832 26.0031 54.1259 26.061C54.2686 26.119 54.4215 26.148 54.5757 26.1462C54.7347 26.1503 54.8928 26.1225 55.0407 26.0645C55.1886 26.0065 55.3231 25.9195 55.4363 25.8087C55.5462 25.7013 55.633 25.5729 55.6915 25.4313C55.75 25.2897 55.7789 25.1378 55.7765 24.9848V16.1899H58.0379C58.3299 16.1899 58.6098 16.0749 58.8163 15.8701C59.0227 15.6654 59.1387 15.3876 59.1387 15.098C59.1387 14.8085 59.0227 14.5307 58.8163 14.3259C58.6098 14.1212 58.3299 14.0061 58.0379 14.0061H55.7765C55.7748 13.4369 55.8626 12.871 56.0367 12.3286C56.171 11.8957 56.4366 11.5145 56.7971 11.2367C57.2118 10.9574 57.7077 10.8213 58.2081 10.8495C58.5133 10.8606 58.811 10.7538 59.0386 10.5517C59.1511 10.4486 59.2408 10.3235 59.3022 10.1842C59.3636 10.045 59.3953 9.89469 59.3953 9.74273C59.3953 9.59078 59.3636 9.44046 59.3022 9.30124C59.2408 9.16202 59.1511 9.03689 59.0386 8.93373C58.811 8.73163 58.5133 8.6249 58.2081 8.63594C57.2514 8.60286 56.3068 8.85529 55.4963 9.36057C54.7732 9.84478 54.2178 10.5379 53.9053 11.3459C53.5809 12.1887 53.418 13.0842 53.425 13.9863H52.2842C52.1384 13.9825 51.9933 14.0078 51.8575 14.0607C51.7218 14.1135 51.598 14.1929 51.4937 14.294C51.2924 14.5043 51.1802 14.7832 51.1802 15.0732C51.1802 15.3632 51.2924 15.6422 51.4937 15.8525C51.598 15.9536 51.7218 16.0329 51.8575 16.0858C51.9933 16.1386 52.1384 16.1639 52.2842 16.1602H53.415V24.9351C53.4042 25.0957 53.4282 25.2566 53.4851 25.4072C53.542 25.5579 53.6307 25.6947 53.7452 25.8087Z" fill="#BCFFEF"/>
<path d="M70.1154 25.8087C70.2286 25.9195 70.3631 26.0066 70.511 26.0646C70.6589 26.1226 70.817 26.1503 70.976 26.1462C71.1311 26.1485 71.2851 26.1188 71.428 26.059C71.571 25.9992 71.6999 25.9106 71.8065 25.7988C72.0133 25.5781 72.1246 25.2859 72.1167 24.9848V19.8528C72.1314 18.7054 71.8379 17.5747 71.2662 16.5771C70.715 15.6224 69.9171 14.8309 68.9547 14.2841C67.9382 13.7359 66.7996 13.4487 65.6425 13.4487C64.4855 13.4487 63.3469 13.7359 62.3304 14.2841C61.3732 14.8353 60.582 15.6304 60.0389 16.5871C59.4827 17.5871 59.1909 18.7107 59.1909 19.8528C59.1909 20.995 59.4827 22.1186 60.0389 23.1186C60.5921 24.0752 61.3938 24.8671 62.3604 25.4116C63.3744 25.9752 64.5205 26.2628 65.6826 26.2455C66.7288 26.2589 67.7615 26.0096 68.6845 25.5208C69.0801 25.3054 69.4494 25.0456 69.7852 24.7466V24.965C69.7788 25.1206 69.8048 25.2758 69.8616 25.421C69.9184 25.5662 70.0048 25.6982 70.1154 25.8087ZM69.2449 22.0069C68.897 22.6243 68.3892 23.1384 67.7739 23.4958C67.2983 23.7731 66.772 23.9541 66.2255 24.0283C65.6789 24.1025 65.1229 24.0685 64.5897 23.9282C64.0565 23.7879 63.5566 23.5441 63.119 23.2109C62.6814 22.8777 62.3147 22.4617 62.0402 21.987C61.6716 21.3361 61.485 20.5993 61.4999 19.8528C61.487 19.1066 61.6734 18.3703 62.0402 17.7187C62.3936 17.0987 62.9086 16.5844 63.5312 16.2297C64.1781 15.8715 64.9067 15.6835 65.6476 15.6835C66.3884 15.6835 67.117 15.8715 67.7639 16.2297C68.3792 16.5872 68.887 17.1012 69.2349 17.7187C69.5879 18.3755 69.7726 19.1085 69.7726 19.8528C69.7726 20.5972 69.5879 21.3302 69.2349 21.987L69.2449 22.0069Z" fill="#BCFFEF"/>
<path d="M77.6903 16.2299C78.2606 15.8701 78.9259 15.6869 79.6016 15.7038C80.1845 15.6886 80.7631 15.807 81.2924 16.0497C81.8218 16.2925 82.2875 16.653 82.6535 17.1034C82.8364 17.3408 83.1059 17.4976 83.404 17.5402H83.5541C83.7809 17.5468 84.0031 17.4768 84.1845 17.3416C84.3162 17.2633 84.4297 17.1583 84.5177 17.0334C84.6056 16.9085 84.666 16.7666 84.6948 16.617C84.7219 16.4667 84.7153 16.3123 84.6755 16.1648C84.6357 16.0173 84.5638 15.8802 84.4647 15.7633C83.8964 15.0284 83.1586 14.4394 82.3133 14.0461C81.4613 13.6649 80.5361 13.4719 79.6016 13.4803C78.5045 13.4625 77.425 13.7551 76.4895 14.324C75.59 14.8883 74.8579 15.6797 74.3682 16.617C73.8523 17.618 73.5912 18.729 73.6077 19.853C73.5918 20.9842 73.8747 22.0999 74.4282 23.089C74.9721 24.0568 75.77 24.8603 76.7373 25.4144C77.7045 25.9684 78.805 26.2522 79.9218 26.2357C81.4761 26.2789 82.9878 25.7281 84.1445 24.6971C84.2656 24.5975 84.3613 24.471 84.4239 24.3279C84.4865 24.1847 84.5142 24.029 84.5047 23.8732C84.4978 23.7239 84.4605 23.5774 84.3952 23.4427C84.3298 23.308 84.2378 23.1877 84.1245 23.089C84.018 22.9857 83.8908 22.9058 83.7512 22.8545C83.6115 22.8032 83.4626 22.7817 83.314 22.7912C83.0377 22.8173 82.7776 22.9324 82.5735 23.1188C82.2398 23.4215 81.8437 23.6485 81.4127 23.7839C80.9343 23.9372 80.4345 24.0143 79.9318 24.0122C79.2234 24.0383 78.522 23.8659 77.9079 23.5148C77.2938 23.1637 76.7918 22.648 76.4595 22.0269C76.1063 21.357 75.9307 20.6089 75.9492 19.853C75.9346 19.0989 76.0955 18.3516 76.4195 17.6692C76.7016 17.0826 77.1413 16.5846 77.6903 16.2299Z" fill="#BCFFEF"/>
<path d="M92.6502 23.8235H92.1799C91.8853 23.838 91.5909 23.7916 91.3153 23.6874C91.0398 23.5832 90.789 23.4233 90.5789 23.218C90.371 23.004 90.2097 22.75 90.1047 22.4717C89.9997 22.1934 89.9533 21.8968 89.9685 21.6V16.1901H92.2499C92.3991 16.1966 92.548 16.1726 92.6874 16.1196C92.8268 16.0667 92.9538 15.986 93.0605 15.8824C93.2618 15.6721 93.374 15.3931 93.374 15.1031C93.374 14.8131 93.2618 14.5342 93.0605 14.3239C92.9561 14.2228 92.8324 14.1435 92.6966 14.0906C92.5609 14.0378 92.4158 14.0125 92.27 14.0162H89.9685V11.1078C89.9718 10.9517 89.9435 10.7965 89.885 10.6515C89.8265 10.5065 89.7392 10.3747 89.6282 10.264C89.5155 10.1562 89.3822 10.0717 89.2362 10.0154C89.0901 9.9592 88.9343 9.93235 88.7777 9.93644C88.6242 9.93333 88.4717 9.96071 88.3291 10.017C88.1864 10.0732 88.0566 10.1572 87.9472 10.264C87.8362 10.3747 87.7489 10.5065 87.6904 10.6515C87.6319 10.7965 87.6036 10.9517 87.6069 11.1078V14.0063H86.4762C86.1843 14.0063 85.9043 14.1213 85.6979 14.3261C85.4915 14.5309 85.3755 14.8086 85.3755 15.0982C85.3755 15.3878 85.4915 15.6655 85.6979 15.8703C85.9043 16.0751 86.1843 16.1901 86.4762 16.1901H87.6069V21.5702C87.5967 22.381 87.7966 23.1808 88.1873 23.893C88.5672 24.576 89.1322 25.1399 89.8184 25.5209C90.5381 25.9165 91.3471 26.1248 92.1699 26.1264H92.6602C92.8168 26.1305 92.9726 26.1037 93.1187 26.0474C93.2647 25.9912 93.398 25.9067 93.5108 25.7989C93.6207 25.6915 93.7075 25.5631 93.766 25.4215C93.8245 25.2799 93.8534 25.128 93.851 24.975C93.8525 24.82 93.8222 24.6663 93.7618 24.5233C93.7015 24.3803 93.6124 24.251 93.5001 24.1432C93.3877 24.0355 93.2544 23.9516 93.1083 23.8966C92.9622 23.8416 92.8063 23.8168 92.6502 23.8235Z" fill="#BCFFEF"/>
<path d="M98.0639 9.56902C97.7815 9.33957 97.4282 9.2134 97.0632 9.21167C96.6987 9.21577 96.3461 9.34167 96.0626 9.56902C95.8938 9.70456 95.7596 9.87766 95.671 10.0743C95.5823 10.2709 95.5416 10.4855 95.5522 10.7006C95.5166 10.9165 95.5287 11.1375 95.5877 11.3483C95.6467 11.5591 95.7512 11.7547 95.894 11.9214C96.0368 12.0882 96.2144 12.2221 96.4146 12.314C96.6148 12.4058 96.8327 12.4534 97.0532 12.4534C97.2738 12.4534 97.4917 12.4058 97.6918 12.314C97.892 12.2221 98.0696 12.0882 98.2124 11.9214C98.3552 11.7547 98.4597 11.5591 98.5187 11.3483C98.5777 11.1375 98.5898 10.9165 98.5542 10.7006C98.5664 10.4872 98.5285 10.2739 98.4434 10.0775C98.3583 9.88116 98.2284 9.70708 98.0639 9.56902Z" fill="#BCFFEF"/>
<path d="M97.0627 13.5798C96.7593 13.573 96.4651 13.6834 96.2422 13.8875C96.1269 13.9956 96.0361 14.1267 95.9758 14.2721C95.9154 14.4176 95.8868 14.5741 95.8919 14.7313V24.9555C95.8895 25.1085 95.9185 25.2604 95.9769 25.402C96.0354 25.5437 96.1222 25.672 96.2322 25.7794C96.3407 25.888 96.4702 25.9738 96.6129 26.0318C96.7556 26.0898 96.9085 26.1187 97.0627 26.1169C97.2227 26.1221 97.382 26.0939 97.5302 26.034C97.6785 25.9742 97.8124 25.884 97.9233 25.7695C98.13 25.5489 98.2414 25.2566 98.2335 24.9555V14.7412C98.2421 14.5864 98.2178 14.4316 98.162 14.2868C98.1063 14.142 98.0203 14.0105 97.9098 13.9008C97.7993 13.7912 97.6668 13.706 97.5208 13.6507C97.3748 13.5953 97.2187 13.5712 97.0627 13.5798Z" fill="#BCFFEF"/>
<path d="M111.302 13.6487C111.152 13.579 110.988 13.5417 110.822 13.5396C110.689 13.5409 110.557 13.5644 110.432 13.609C110.286 13.6576 110.152 13.7356 110.039 13.8381C109.925 13.9406 109.834 14.0654 109.771 14.2046L105.959 22.5031L102.066 14.2245C102.007 14.091 101.922 13.9705 101.815 13.8699C101.709 13.7694 101.583 13.6908 101.446 13.6388C101.321 13.5924 101.189 13.5689 101.056 13.5693C100.89 13.5709 100.726 13.6081 100.575 13.6785C100.439 13.7362 100.316 13.8203 100.212 13.926C100.109 14.0317 100.029 14.1568 99.975 14.294C99.8641 14.5713 99.8641 14.8802 99.975 15.1576L104.818 25.3917C104.897 25.6132 105.044 25.8048 105.237 25.9399C105.431 26.0751 105.662 26.1472 105.899 26.1461C106.145 26.1502 106.387 26.0816 106.593 25.9491C106.8 25.8165 106.962 25.6259 107.06 25.4016L111.853 15.1278C111.916 14.9907 111.948 14.8417 111.948 14.691C111.948 14.5403 111.916 14.3914 111.853 14.2543C111.75 13.9926 111.554 13.7772 111.302 13.6487Z" fill="#BCFFEF"/>
<path d="M123.74 20.4677C123.852 20.3637 123.94 20.2374 123.999 20.097C124.057 19.9567 124.085 19.8056 124.08 19.6538C124.101 18.5506 123.847 17.4595 123.34 16.4773C122.859 15.5696 122.135 14.8106 121.249 14.2836C120.557 13.8684 119.788 13.5981 118.987 13.4894C118.186 13.3808 117.372 13.4361 116.594 13.6519C115.815 13.8677 115.09 14.2394 114.462 14.7441C113.834 15.2489 113.317 15.8759 112.943 16.5865C112.423 17.6002 112.162 18.725 112.183 19.8622C112.164 21.0051 112.443 22.1334 112.993 23.138C113.519 24.0866 114.298 24.8732 115.245 25.4111C116.237 25.9624 117.359 26.2433 118.497 26.2251C119.277 26.2169 120.049 26.0724 120.778 25.7982C121.494 25.5543 122.156 25.1769 122.73 24.6865C122.855 24.5819 122.952 24.4485 123.013 24.2979C123.074 24.1474 123.097 23.9843 123.08 23.8229C123.071 23.6675 123.027 23.5159 122.953 23.3788C122.879 23.2416 122.775 23.1222 122.65 23.0288C122.432 22.8458 122.154 22.7502 121.869 22.7607C121.583 22.7705 121.311 22.8876 121.109 23.0883C120.781 23.3746 120.395 23.5878 119.978 23.7137C119.495 23.8808 118.988 23.9679 118.477 23.9718C117.751 23.986 117.035 23.8041 116.406 23.4457C115.812 23.1015 115.326 22.5995 115.005 21.9964C114.793 21.602 114.648 21.1763 114.574 20.7358H122.9C123.205 20.7597 123.507 20.6634 123.74 20.4677ZM114.654 18.6214C114.728 18.2772 114.846 17.9437 115.005 17.6288C115.299 17.0385 115.748 16.5378 116.305 16.1795C116.865 15.8297 117.515 15.6502 118.177 15.6634C118.861 15.6436 119.536 15.823 120.118 16.1795C120.669 16.5295 121.106 17.0291 121.379 17.6189C121.528 17.9346 121.636 18.2683 121.699 18.6115L114.654 18.6214Z" fill="#BCFFEF"/>
<path d="M56.0963 2.48161H91.2991V7.11725H93.8107V0H53.5847V7.11725H56.0963V2.48161Z" fill="#BCFFEF"/>
<path d="M91.2991 37.2245H56.0963V32.5889H53.5847V39.7061H93.8107V32.5889H91.2991V37.2245Z" fill="#BCFFEF"/>
</svg>
