<svg width="32" height="32" viewBox="0 0 32 32" fill="none" xmlns="http://www.w3.org/2000/svg">
<path d="M3.14282 24.0759V9.27679C3.14282 8.67294 3.3827 8.09384 3.80968 7.66686C4.23666 7.23987 4.81577 7 5.41961 7H25.9107C26.5145 7 27.0936 7.23987 27.5206 7.66686C27.9476 8.09384 28.1875 8.67294 28.1875 9.27679V24.0759" stroke="white" stroke-linecap="round" stroke-linejoin="round"/>
<path d="M1 24.1426H31V25.7497C31 26.176 30.7569 26.5847 30.3241 26.8861C29.8913 27.1875 29.3043 27.3569 28.6923 27.3569H3.30769C2.69565 27.3569 2.10868 27.1875 1.67591 26.8861C1.24313 26.5847 1 26.176 1 25.7497V24.1426Z" stroke="#73E9CD" stroke-linecap="round" stroke-linejoin="round"/>
<path d="M17.0713 9.14258H14.9285" stroke="white" stroke-linecap="round" stroke-linejoin="round"/>
<path d="M20.2858 18.0717C20.2858 18.3243 20.1854 18.5665 20.0068 18.7451C19.8282 18.9237 19.586 19.0241 19.3334 19.0241H13.6191L11.7144 20.9288V13.3098C11.7144 13.0572 11.8147 12.815 11.9933 12.6364C12.1719 12.4578 12.4141 12.3574 12.6667 12.3574H19.3334C19.586 12.3574 19.8282 12.4578 20.0068 12.6364C20.1854 12.815 20.2858 13.0572 20.2858 13.3098V18.0717Z" stroke="#73E9CD" stroke-linecap="round" stroke-linejoin="round"/>
</svg>
